country-code,country,status
12,Algeria,DEVELOPING
24,Angola,DEVELOPING
204,Benin,DEVELOPING
72,Botswana,DEVELOPING
86,British Indian Ocean Territory,DEVELOPING
854,Burkina Faso,DEVELOPING
108,Burundi,DEVELOPING
132,Cabo Verde,DEVELOPING
120,Cameroon,DEVELOPING
140,Central African Republic,DEVELOPING
148,Chad,DEVELOPING
174,Comoros,DEVELOPING
178,Congo,DEVELOPING
384,Côte d'Ivoire,DEVELOPING
180,Dem. Rep. of the Congo,DEVELOPING
262,Djibouti,DEVELOPING
818,Egypt,DEVELOPING
226,Equatorial Guinea,DEVELOPING
232,Eritrea,DEVELOPING
748,Eswatini,DEVELOPING
231,Ethiopia,DEVELOPING
230,Ethiopia (...1991),DEVELOPING
260,French Southern Territories,DEVELOPING
266,Gabon,DEVELOPING
270,Gambia,DEVELOPING
288,Ghana,DEVELOPING
324,Guinea,DEVELOPING
624,Guinea-Bissau,DEVELOPING
404,Kenya,DEVELOPING
426,Lesotho,DEVELOPING
430,Liberia,DEVELOPING
434,Libya,DEVELOPING
450,Madagascar,DEVELOPING
454,Malawi,DEVELOPING
466,Mali,DEVELOPING
478,Mauritania,DEVELOPING
480,Mauritius,DEVELOPING
504,Morocco,DEVELOPING
508,Mozambique,DEVELOPING
516,Namibia,DEVELOPING
562,Niger,DEVELOPING
566,Nigeria,DEVELOPING
646,Rwanda,DEVELOPING
654,Saint Helena,DEVELOPING
678,Sao Tome and Principe,DEVELOPING
686,Senegal,DEVELOPING
690,Seychelles,DEVELOPING
694,Sierra Leone,DEVELOPING
706,Somalia,DEVELOPING
710,South Africa,DEVELOPING
728,South Sudan,DEVELOPING
729,Sudan,DEVELOPING
736,Sudan (...2011),DEVELOPING
768,Togo,DEVELOPING
788,Tunisia,DEVELOPING
800,Uganda,DEVELOPING
834,United Republic of Tanzania,DEVELOPING
732,Western Sahara,DEVELOPING
894,Zambia,DEVELOPING
716,Zimbabwe,DEVELOPING
660,Anguilla,DEVELOPING
28,Antigua and Barbuda,DEVELOPING
32,Argentina,DEVELOPING
533,Aruba,DEVELOPING
44,Bahamas,DEVELOPING
52,Barbados,DEVELOPING
84,Belize,DEVELOPING
68,Bolivia (Plurinational State of),DEVELOPING
535,"Bonaire, Sint Eustatius and Saba",DEVELOPING
74,Bouvet Island,DEVELOPING
76,Brazil,DEVELOPING
92,British Virgin Islands,DEVELOPING
136,Cayman Islands,DEVELOPING
152,Chile,DEVELOPING
170,Colombia,DEVELOPING
188,Costa Rica,DEVELOPING
192,Cuba,DEVELOPING
531,Curaçao,DEVELOPING
212,Dominica,DEVELOPING
214,Dominican Republic,DEVELOPING
218,Ecuador,DEVELOPING
222,El Salvador,DEVELOPING
238,Falkland Islands (Malvinas),DEVELOPING
308,Grenada,DEVELOPING
320,Guatemala,DEVELOPING
328,Guyana,DEVELOPING
332,Haiti,DEVELOPING
340,Honduras,DEVELOPING
388,Jamaica,DEVELOPING
484,Mexico,DEVELOPING
500,Montserrat,DEVELOPING
530,Netherlands Antilles,DEVELOPING
558,Nicaragua,DEVELOPING
591,Panama,DEVELOPING
592,"Panama, Canal Zone",DEVELOPING
590,"Panama, excluding Canal Zone",DEVELOPING
600,Paraguay,DEVELOPING
604,Peru,DEVELOPING
652,Saint Barthélemy,DEVELOPING
659,Saint Kitts and Nevis,DEVELOPING
662,Saint Lucia,DEVELOPING
663,Saint Martin (French part),DEVELOPING
670,Saint Vincent and the Grenadines,DEVELOPING
534,Sint Maarten (Dutch part),DEVELOPING
239,South Georgia and South Sandwich Islands,DEVELOPING
740,Suriname,DEVELOPING
780,Trinidad and Tobago,DEVELOPING
796,Turks and Caicos Islands,DEVELOPING
858,Uruguay,DEVELOPING
862,Venezuela (Bolivarian Rep. of),DEVELOPING
4,Afghanistan,DEVELOPING
48,Bahrain,DEVELOPING
50,Bangladesh,DEVELOPING
64,Bhutan,DEVELOPING
96,Brunei Darussalam,DEVELOPING
116,Cambodia,DEVELOPING
156,China,DEVELOPING
344,"China, Hong Kong SAR",DEVELOPING
446,"China, Macao SAR",DEVELOPING
158,"China, Taiwan Province of",DEVELOPING
356,India,DEVELOPING
360,Indonesia,DEVELOPING
960,Indonesia (...2002),DEVELOPING
364,Iran (Islamic Republic of),DEVELOPING
368,Iraq,DEVELOPING
400,Jordan,DEVELOPING
408,"Korea, Dem. People's Rep. of",DEVELOPING
410,"Korea, Republic of",DEVELOPING
414,Kuwait,DEVELOPING
418,Lao People's Dem. Rep.,DEVELOPING
422,Lebanon,DEVELOPING
458,Malaysia,DEVELOPING
462,Maldives,DEVELOPING
496,Mongolia,DEVELOPING
104,Myanmar,DEVELOPING
524,Nepal,DEVELOPING
512,Oman,DEVELOPING
586,Pakistan,DEVELOPING
608,Philippines,DEVELOPING
634,Qatar,DEVELOPING
682,Saudi Arabia,DEVELOPING
702,Singapore,DEVELOPING
144,Sri Lanka,DEVELOPING
275,State of Palestine,DEVELOPING
760,Syrian Arab Republic,DEVELOPING
764,Thailand,DEVELOPING
626,Timor-Leste,DEVELOPING
792,Turkey,DEVELOPING
784,United Arab Emirates,DEVELOPING
704,Viet Nam,DEVELOPING
887,Yemen,DEVELOPING
886,"Yemen, Arab Republic",DEVELOPING
720,"Yemen, Democratic",DEVELOPING
16,American Samoa,DEVELOPING
184,Cook Islands,DEVELOPING
242,Fiji,DEVELOPING
258,French Polynesia,DEVELOPING
316,Guam,DEVELOPING
296,Kiribati,DEVELOPING
584,Marshall Islands,DEVELOPING
583,Micronesia (Federated States of),DEVELOPING
520,Nauru,DEVELOPING
540,New Caledonia,DEVELOPING
570,Niue,DEVELOPING
580,Northern Mariana Islands,DEVELOPING
582,"Pacific Islands, Trust Territory",DEVELOPING
585,Palau,DEVELOPING
598,Papua New Guinea,DEVELOPING
612,Pitcairn,DEVELOPING
882,Samoa,DEVELOPING
90,Solomon Islands,DEVELOPING
772,Tokelau,DEVELOPING
776,Tonga,DEVELOPING
798,Tuvalu,DEVELOPING
581,United States Minor Outlying Islands,DEVELOPING
548,Vanuatu,DEVELOPING
876,Wallis and Futuna Islands,DEVELOPING
8,Albania,TRANSITIONING
51,Armenia,TRANSITIONING
31,Azerbaijan,TRANSITIONING
112,Belarus,TRANSITIONING
70,Bosnia and Herzegovina,TRANSITIONING
268,Georgia,TRANSITIONING
398,Kazakhstan,TRANSITIONING
417,Kyrgyzstan,TRANSITIONING
499,Montenegro,TRANSITIONING
807,North Macedonia,TRANSITIONING
498,Republic of Moldova,TRANSITIONING
643,Russian Federation,TRANSITIONING
688,Serbia,TRANSITIONING
891,Serbia and Montenegro,TRANSITIONING
890,Socialist Federal Republic of Yugoslavia,TRANSITIONING
762,Tajikistan,TRANSITIONING
795,Turkmenistan,TRANSITIONING
804,Ukraine,TRANSITIONING
810,Union of Soviet Socialist Republics,TRANSITIONING
860,Uzbekistan,TRANSITIONING
60,Bermuda,DEVELOPED
124,Canada,DEVELOPED
304,Greenland,DEVELOPED
666,Saint Pierre and Miquelon,DEVELOPED
840,United States of America,DEVELOPED
376,Israel,DEVELOPED
392,Japan,DEVELOPED
20,Andorra,DEVELOPED
40,Austria,DEVELOPED
56,Belgium,DEVELOPED
100,Bulgaria,DEVELOPED
191,Croatia,DEVELOPED
196,Cyprus,DEVELOPED
203,Czechia,DEVELOPED
200,Czechoslovakia,DEVELOPED
208,Denmark,DEVELOPED
233,Estonia,DEVELOPED
234,Faroe Islands,DEVELOPED
246,Finland,DEVELOPED
250,France,DEVELOPED
276,Germany,DEVELOPED
278,"Germany, Democratic Republic of",DEVELOPED
280,"Germany, Federal Republic of",DEVELOPED
292,Gibraltar,DEVELOPED
300,Greece,DEVELOPED
336,Holy See,DEVELOPED
348,Hungary,DEVELOPED
352,Iceland,DEVELOPED
372,Ireland,DEVELOPED
380,Italy,DEVELOPED
428,Latvia,DEVELOPED
440,Lithuania,DEVELOPED
442,Luxembourg,DEVELOPED
470,Malta,DEVELOPED
528,Netherlands,DEVELOPED
578,Norway,DEVELOPED
616,Poland,DEVELOPED
620,Portugal,DEVELOPED
642,Romania,DEVELOPED
674,San Marino,DEVELOPED
703,Slovakia,DEVELOPED
705,Slovenia,DEVELOPED
724,Spain,DEVELOPED
752,Sweden,DEVELOPED
756,"Switzerland, Liechtenstein",DEVELOPED
826,United Kingdom,DEVELOPED
36,Australia,DEVELOPED
162,Christmas Island,DEVELOPED
166,Cocos (Keeling) Islands,DEVELOPED
334,Heard Island and McDonald Islands,DEVELOPED
554,New Zealand,DEVELOPED
574,Norfolk Island,DEVELOPED
1900,Other territories,DEVELOPED
